
{
  "description": "a list of encouraging words to tell to someone",
  "encouraging_words": [
    "amazing",
    "awesome",
    "beautiful",
    "brilliant",
    "breathtaking",
    "cool",
    "dazzling",
    "delightful",
    "electrifying",
    "elegant",
    "enchanting",
    "excellent",
    "exciting",
    "fabulous",
    "fantastic",
    "fun",
    "great",
    "groundbreaking",
    "heavenly",
    "impressive",
    "innovative",
    "inventive",
    "kind",
    "legendary",
    "lifechanging",
    "lovely",
    "magical",
    "marvelous",
    "masterful",
    "miraculous",
    "nice",
    "original",
    "perfect",
    "phenomenal",
    "powerful",
    "refreshing",
    "remarkable",
    "rejuvenating",
    "resounding",
    "skillful",
    "strong",
    "stupendous",
    "stunning",
    "sweet",
    "terrific",
    "thoughtful",
    "thrilling",
    "wonderful",
    "wondrous"
  ]
}
